riscvVivado.sim/sim_1/behav/xsim/simulate.log
Time resolution is 1 ps
PC: 00400000, Inst: 7fc00097, Addr: 80000000, Rd-Dt: xxxxxxxx, Rd-En 0, Wr-Dt: xxxxxxxx, WrEn: 0, Wr-BE: 0001
PC: 00400004, Inst: 00008093, Addr: 80000000, Rd-Dt: xxxxxxxx, Rd-En 0, Wr-Dt: 00000000, WrEn: 0, Wr-BE: 0001
PC: 00400008, Inst: 00008183, Addr: 80000000, Rd-Dt: 0ff000ff, Rd-En 1, Wr-Dt: 00000000, WrEn: 0, Wr-BE: 0001
PC: 0040000c, Inst: fff00e93, Addr: ffffffff, Rd-Dt: xxxxxxxx, Rd-En 0, Wr-Dt: xx000000, WrEn: 0, Wr-BE: 1000
PC: 00400010, Inst: 00200e13, Addr: 00000002, Rd-Dt: xxxxxxxx, Rd-En 0, Wr-Dt: xxxx0000, WrEn: 0, Wr-BE: 0100
PC: 00400014, Inst: 23d19c63, Addr: 00000001, Rd-Dt: xxxxxxxx, Rd-En 0, Wr-Dt: ffffff00, WrEn: 0, Wr-BE: 0110
PC: 00400018, Inst: 7fc00097, Addr: 80000018, Rd-Dt: xxxxxxxx, Rd-En 0, Wr-Dt: 00000002, WrEn: 0, Wr-BE: 0001
PC: 0040001c, Inst: fe808093, Addr: 80000000, Rd-Dt: xxxxxxxx, Rd-En 0, Wr-Dt: xxxxxxxx, WrEn: 0, Wr-BE: 0001
PC: 00400020, Inst: 00108183, Addr: 80000001, Rd-Dt: 0ff000ff, Rd-En 1, Wr-Dt: 00000000, WrEn: 0, Wr-BE: 0010
PC: 00400024, Inst: 00000e93, Addr: 00000000, Rd-Dt: xxxxxxxx, Rd-En 0, Wr-Dt: 00000000, WrEn: 0, Wr-BE: 0001
PC: 00400028, Inst: 00300e13, Addr: 00000003, Rd-Dt: xxxxxxxx, Rd-En 0, Wr-Dt: 00000000, WrEn: 0, Wr-BE: 1000
PC: 0040002c, Inst: 23d19063, Addr: 00000001, Rd-Dt: xxxxxxxx, Rd-En 0, Wr-Dt: 00000000, WrEn: 0, Wr-BE: 0110
PC: 00400030, Inst: 7fc00097, Addr: 80000030, Rd-Dt: xxxxxxxx, Rd-En 0, Wr-Dt: 00000003, WrEn: 0, Wr-BE: 0001
PC: 00400034, Inst: fd008093, Addr: 80000000, Rd-Dt: xxxxxxxx, Rd-En 0, Wr-Dt: xxxxxxxx, WrEn: 0, Wr-BE: 0001
PC: 00400038, Inst: 00208183, Addr: 80000002, Rd-Dt: 0ff000ff, Rd-En 1, Wr-Dt: xxxx0000, WrEn: 0, Wr-BE: 0100
PC: 0040003c, Inst: ff000e93, Addr: fffffff0, Rd-Dt: xxxxxxxx, Rd-En 0, Wr-Dt: xxxxxxxx, WrEn: 0, Wr-BE: 0001
PC: 00400040, Inst: 00400e13, Addr: 00000004, Rd-Dt: xxxxxxxx, Rd-En 0, Wr-Dt: xxxxxxxx, WrEn: 0, Wr-BE: 0001
PC: 00400044, Inst: 21d19463, Addr: 00000001, Rd-Dt: xxxxxxxx, Rd-En 0, Wr-Dt: fffff000, WrEn: 0, Wr-BE: 0110
PC: 00400048, Inst: 7fc00097, Addr: 80000048, Rd-Dt: xxxxxxxx, Rd-En 0, Wr-Dt: 00000004, WrEn: 0, Wr-BE: 0001
PC: 0040004c, Inst: fb808093, Addr: 80000000, Rd-Dt: xxxxxxxx, Rd-En 0, Wr-Dt: xxxxxxxx, WrEn: 0, Wr-BE: 0001
PC: 00400050, Inst: 00308183, Addr: 80000003, Rd-Dt: 0ff000ff, Rd-En 1, Wr-Dt: f0000000, WrEn: 0, Wr-BE: 1000
PC: 00400054, Inst: 00f00e93, Addr: 0000000f, Rd-Dt: xxxxxxxx, Rd-En 0, Wr-Dt: xx000000, WrEn: 0, Wr-BE: 1000
PC: 00400058, Inst: 00500e13, Addr: 00000005, Rd-Dt: xxxxxxxx, Rd-En 0, Wr-Dt: xxxxxx00, WrEn: 0, Wr-BE: 0010
PC: 0040005c, Inst: 1fd19863, Addr: 00000001, Rd-Dt: xxxxxxxx, Rd-En 0, Wr-Dt: 00000f00, WrEn: 0, Wr-BE: 0110
PC: 00400060, Inst: 7fc00097, Addr: 80000060, Rd-Dt: xxxxxxxx, Rd-En 0, Wr-Dt: 00000005, WrEn: 0, Wr-BE: 0001
PC: 00400064, Inst: fa308093, Addr: 80000003, Rd-Dt: xxxxxxxx, Rd-En 0, Wr-Dt: 0f000000, WrEn: 0, Wr-BE: 1000
PC: 00400068, Inst: ffd08183, Addr: 80000000, Rd-Dt: 0ff000ff, Rd-En 1, Wr-Dt: 0000000f, WrEn: 0, Wr-BE: 0001
PC: 0040006c, Inst: fff00e93, Addr: ffffffff, Rd-Dt: xxxxxxxx, Rd-En 0, Wr-Dt: xx000000, WrEn: 0, Wr-BE: 1000
PC: 00400070, Inst: 00600e13, Addr: 00000006, Rd-Dt: xxxxxxxx, Rd-En 0, Wr-Dt: xxxx0000, WrEn: 0, Wr-BE: 0100
PC: 00400074, Inst: 1dd19c63, Addr: 00000001, Rd-Dt: xxxxxxxx, Rd-En 0, Wr-Dt: ffffff00, WrEn: 0, Wr-BE: 0110
PC: 00400078, Inst: 7fc00097, Addr: 80000078, Rd-Dt: xxxxxxxx, Rd-En 0, Wr-Dt: 00000006, WrEn: 0, Wr-BE: 0001
PC: 0040007c, Inst: f8b08093, Addr: 80000003, Rd-Dt: xxxxxxxx, Rd-En 0, Wr-Dt: xx000000, WrEn: 0, Wr-BE: 1000
PC: 00400080, Inst: ffe08183, Addr: 80000001, Rd-Dt: 0ff000ff, Rd-En 1, Wr-Dt: xxxxxx00, WrEn: 0, Wr-BE: 0010
PC: 00400084, Inst: 00000e93, Addr: 00000000, Rd-Dt: xxxxxxxx, Rd-En 0, Wr-Dt: 00000000, WrEn: 0, Wr-BE: 0001
PC: 00400088, Inst: 00700e13, Addr: 00000007, Rd-Dt: xxxxxxxx, Rd-En 0, Wr-Dt: xx000000, WrEn: 0, Wr-BE: 1000
PC: 0040008c, Inst: 1dd19063, Addr: 00000001, Rd-Dt: xxxxxxxx, Rd-En 0, Wr-Dt: 00000000, WrEn: 0, Wr-BE: 0110
PC: 00400090, Inst: 7fc00097, Addr: 80000090, Rd-Dt: xxxxxxxx, Rd-En 0, Wr-Dt: 00000007, WrEn: 0, Wr-BE: 0001
PC: 00400094, Inst: f7308093, Addr: 80000003, Rd-Dt: xxxxxxxx, Rd-En 0, Wr-Dt: xx000000, WrEn: 0, Wr-BE: 1000
PC: 00400098, Inst: fff08183, Addr: 80000002, Rd-Dt: 0ff000ff, Rd-En 1, Wr-Dt: xxxx0000, WrEn: 0, Wr-BE: 0100
PC: 0040009c, Inst: ff000e93, Addr: fffffff0, Rd-Dt: xxxxxxxx, Rd-En 0, Wr-Dt: xxxxxxxx, WrEn: 0, Wr-BE: 0001
PC: 004000a0, Inst: 00800e13, Addr: 00000008, Rd-Dt: xxxxxxxx, Rd-En 0, Wr-Dt: xxxxxxxx, WrEn: 0, Wr-BE: 0001
PC: 004000a4, Inst: 1bd19463, Addr: 00000001, Rd-Dt: xxxxxxxx, Rd-En 0, Wr-Dt: fffff000, WrEn: 0, Wr-BE: 0110
PC: 004000a8, Inst: 7fc00097, Addr: 800000a8, Rd-Dt: xxxxxxxx, Rd-En 0, Wr-Dt: 00000008, WrEn: 0, Wr-BE: 0001
PC: 004000ac, Inst: f5b08093, Addr: 80000003, Rd-Dt: xxxxxxxx, Rd-En 0, Wr-Dt: xx000000, WrEn: 0, Wr-BE: 1000
PC: 004000b0, Inst: 00008183, Addr: 80000003, Rd-Dt: 0ff000ff, Rd-En 1, Wr-Dt: 00000000, WrEn: 0, Wr-BE: 1000
PC: 004000b4, Inst: 00f00e93, Addr: 0000000f, Rd-Dt: xxxxxxxx, Rd-En 0, Wr-Dt: xx000000, WrEn: 0, Wr-BE: 1000
PC: 004000b8, Inst: 00900e13, Addr: 00000009, Rd-Dt: xxxxxxxx, Rd-En 0, Wr-Dt: xxxxxx00, WrEn: 0, Wr-BE: 0010
PC: 004000bc, Inst: 19d19863, Addr: 00000001, Rd-Dt: xxxxxxxx, Rd-En 0, Wr-Dt: 00000f00, WrEn: 0, Wr-BE: 0110
PC: 004000c0, Inst: 7fc00097, Addr: 800000c0, Rd-Dt: xxxxxxxx, Rd-En 0, Wr-Dt: 00000009, WrEn: 0, Wr-BE: 0001
PC: 004000c4, Inst: f4008093, Addr: 80000000, Rd-Dt: xxxxxxxx, Rd-En 0, Wr-Dt: 00000000, WrEn: 0, Wr-BE: 0001
PC: 004000c8, Inst: fe008093, Addr: 7fffffe0, Rd-Dt: xxxxxxxx, Rd-En 0, Wr-Dt: 00000000, WrEn: 0, Wr-BE: 0001
PC: 004000cc, Inst: 02008283, Addr: 80000000, Rd-Dt: 0ff000ff, Rd-En 1, Wr-Dt: 00000000, WrEn: 0, Wr-BE: 0001
PC: 004000d0, Inst: fff00e93, Addr: ffffffff, Rd-Dt: xxxxxxxx, Rd-En 0, Wr-Dt: xx000000, WrEn: 0, Wr-BE: 1000
PC: 004000d4, Inst: 00a00e13, Addr: 0000000a, Rd-Dt: xxxxxxxx, Rd-En 0, Wr-Dt: xxxx0000, WrEn: 0, Wr-BE: 0100
PC: 004000d8, Inst: 17d29a63, Addr: 00000001, Rd-Dt: xxxxxxxx, Rd-En 0, Wr-Dt: ffffff00, WrEn: 0, Wr-BE: 0110
PC: 004000dc, Inst: 7fc00097, Addr: 800000dc, Rd-Dt: xxxxxxxx, Rd-En 0, Wr-Dt: 0000000a, WrEn: 0, Wr-BE: 0001
PC: 004000e0, Inst: f2408093, Addr: 80000000, Rd-Dt: xxxxxxxx, Rd-En 0, Wr-Dt: xxxxxxxx, WrEn: 0, Wr-BE: 0001
PC: 004000e4, Inst: ffa08093, Addr: 7ffffffa, Rd-Dt: xxxxxxxx, Rd-En 0, Wr-Dt: xxxx0000, WrEn: 0, Wr-BE: 0100
PC: 004000e8, Inst: 00708283, Addr: 80000001, Rd-Dt: 0ff000ff, Rd-En 1, Wr-Dt: xxxxxx00, WrEn: 0, Wr-BE: 0010
PC: 004000ec, Inst: 00000e93, Addr: 00000000, Rd-Dt: xxxxxxxx, Rd-En 0, Wr-Dt: 00000000, WrEn: 0, Wr-BE: 0001
PC: 004000f0, Inst: 00b00e13, Addr: 0000000b, Rd-Dt: xxxxxxxx, Rd-En 0, Wr-Dt: xx000000, WrEn: 0, Wr-BE: 1000
PC: 004000f4, Inst: 15d29c63, Addr: 00000001, Rd-Dt: xxxxxxxx, Rd-En 0, Wr-Dt: 00000000, WrEn: 0, Wr-BE: 0110
PC: 004000f8, Inst: 00c00e13, Addr: 0000000c, Rd-Dt: xxxxxxxx, Rd-En 0, Wr-Dt: xxxxxxxx, WrEn: 0, Wr-BE: 0001
PC: 004000fc, Inst: 00000213, Addr: 00000000, Rd-Dt: xxxxxxxx, Rd-En 0, Wr-Dt: 00000000, WrEn: 0, Wr-BE: 0001
PC: 00400100, Inst: 7fc00097, Addr: 80000100, Rd-Dt: xxxxxxxx, Rd-En 0, Wr-Dt: 0000000c, WrEn: 0, Wr-BE: 0001
PC: 00400104, Inst: f0108093, Addr: 80000001, Rd-Dt: xxxxxxxx, Rd-En 0, Wr-Dt: 00010000, WrEn: 0, Wr-BE: 0010
PC: 00400108, Inst: 00108183, Addr: 80000002, Rd-Dt: 0ff000ff, Rd-En 1, Wr-Dt: 00010000, WrEn: 0, Wr-BE: 0100
PC: 0040010c, Inst: 00018313, Addr: fffffff0, Rd-Dt: xxxxxxxx, Rd-En 0, Wr-Dt: 00000000, WrEn: 0, Wr-BE: 0001
PC: 00400110, Inst: ff000e93, Addr: fffffff0, Rd-Dt: xxxxxxxx, Rd-En 0, Wr-Dt: xxxxxxxx, WrEn: 0, Wr-BE: 0001
PC: 00400114, Inst: 13d31c63, Addr: 00000001, Rd-Dt: xxxxxxxx, Rd-En 0, Wr-Dt: fffff000, WrEn: 0, Wr-BE: 0110
PC: 00400118, Inst: 00120213, Addr: 00000001, Rd-Dt: xxxxxxxx, Rd-En 0, Wr-Dt: 00000100, WrEn: 0, Wr-BE: 0010
PC: 0040011c, Inst: 00200293, Addr: 00000002, Rd-Dt: xxxxxxxx, Rd-En 0, Wr-Dt: xxxx0000, WrEn: 0, Wr-BE: 0100
PC: 00400120, Inst: fe5210e3, Addr: 00000000, Rd-Dt: xxxxxxxx, Rd-En 0, Wr-Dt: 00000002, WrEn: 0, Wr-BE: 0011
PC: 00400100, Inst: 7fc00097, Addr: 80000100, Rd-Dt: xxxxxxxx, Rd-En 0, Wr-Dt: 0000000c, WrEn: 0, Wr-BE: 0001
PC: 00400104, Inst: f0108093, Addr: 80000001, Rd-Dt: xxxxxxxx, Rd-En 0, Wr-Dt: 00010000, WrEn: 0, Wr-BE: 0010
PC: 00400108, Inst: 00108183, Addr: 80000002, Rd-Dt: 0ff000ff, Rd-En 1, Wr-Dt: 00010000, WrEn: 0, Wr-BE: 0100
PC: 0040010c, Inst: 00018313, Addr: fffffff0, Rd-Dt: xxxxxxxx, Rd-En 0, Wr-Dt: 00000000, WrEn: 0, Wr-BE: 0001
PC: 00400110, Inst: ff000e93, Addr: fffffff0, Rd-Dt: xxxxxxxx, Rd-En 0, Wr-Dt: xxxxxxxx, WrEn: 0, Wr-BE: 0001
PC: 00400114, Inst: 13d31c63, Addr: 00000001, Rd-Dt: xxxxxxxx, Rd-En 0, Wr-Dt: fffff000, WrEn: 0, Wr-BE: 0110
PC: 00400118, Inst: 00120213, Addr: 00000002, Rd-Dt: xxxxxxxx, Rd-En 0, Wr-Dt: 00010000, WrEn: 0, Wr-BE: 0100
PC: 0040011c, Inst: 00200293, Addr: 00000002, Rd-Dt: xxxxxxxx, Rd-En 0, Wr-Dt: xxxx0000, WrEn: 0, Wr-BE: 0100
PC: 00400120, Inst: fe5210e3, Addr: 00000001, Rd-Dt: xxxxxxxx, Rd-En 0, Wr-Dt: 00000200, WrEn: 0, Wr-BE: 0110
PC: 00400124, Inst: 00d00e13, Addr: 0000000d, Rd-Dt: xxxxxxxx, Rd-En 0, Wr-Dt: xxxxxx00, WrEn: 0, Wr-BE: 0010
PC: 00400128, Inst: 00000213, Addr: 00000000, Rd-Dt: xxxxxxxx, Rd-En 0, Wr-Dt: 00000000, WrEn: 0, Wr-BE: 0001
PC: 0040012c, Inst: 7fc00097, Addr: 8000012c, Rd-Dt: xxxxxxxx, Rd-En 0, Wr-Dt: 0000000d, WrEn: 0, Wr-BE: 0001
PC: 00400130, Inst: ed608093, Addr: 80000002, Rd-Dt: xxxxxxxx, Rd-En 0, Wr-Dt: xxxx0000, WrEn: 0, Wr-BE: 0100
PC: 00400134, Inst: 00108183, Addr: 80000003, Rd-Dt: 0ff000ff, Rd-En 1, Wr-Dt: 02000000, WrEn: 0, Wr-BE: 1000
PC: 00400138, Inst: 00000013, Addr: 00000000, Rd-Dt: xxxxxxxx, Rd-En 0, Wr-Dt: 00000000, WrEn: 0, Wr-BE: 0001
PC: 0040013c, Inst: 00018313, Addr: 0000000f, Rd-Dt: xxxxxxxx, Rd-En 0, Wr-Dt: 00000000, WrEn: 0, Wr-BE: 1000
PC: 00400140, Inst: 00f00e93, Addr: 0000000f, Rd-Dt: xxxxxxxx, Rd-En 0, Wr-Dt: xx000000, WrEn: 0, Wr-BE: 1000
PC: 00400144, Inst: 11d31463, Addr: 00000001, Rd-Dt: xxxxxxxx, Rd-En 0, Wr-Dt: 00000f00, WrEn: 0, Wr-BE: 0110
PC: 00400148, Inst: 00120213, Addr: 00000001, Rd-Dt: xxxxxxxx, Rd-En 0, Wr-Dt: 00000200, WrEn: 0, Wr-BE: 0010
PC: 0040014c, Inst: 00200293, Addr: 00000002, Rd-Dt: xxxxxxxx, Rd-En 0, Wr-Dt: xxxx0000, WrEn: 0, Wr-BE: 0100
PC: 00400150, Inst: fc521ee3, Addr: 00000000, Rd-Dt: xxxxxxxx, Rd-En 0, Wr-Dt: 00000002, WrEn: 0, Wr-BE: 0011
PC: 0040012c, Inst: 7fc00097, Addr: 8000012c, Rd-Dt: xxxxxxxx, Rd-En 0, Wr-Dt: 0000000d, WrEn: 0, Wr-BE: 0001
PC: 00400130, Inst: ed608093, Addr: 80000002, Rd-Dt: xxxxxxxx, Rd-En 0, Wr-Dt: xxxx0000, WrEn: 0, Wr-BE: 0100
PC: 00400134, Inst: 00108183, Addr: 80000003, Rd-Dt: 0ff000ff, Rd-En 1, Wr-Dt: 02000000, WrEn: 0, Wr-BE: 1000
PC: 00400138, Inst: 00000013, Addr: 00000000, Rd-Dt: xxxxxxxx, Rd-En 0, Wr-Dt: 00000000, WrEn: 0, Wr-BE: 0001
PC: 0040013c, Inst: 00018313, Addr: 0000000f, Rd-Dt: xxxxxxxx, Rd-En 0, Wr-Dt: 00000000, WrEn: 0, Wr-BE: 1000
PC: 00400140, Inst: 00f00e93, Addr: 0000000f, Rd-Dt: xxxxxxxx, Rd-En 0, Wr-Dt: xx000000, WrEn: 0, Wr-BE: 1000
PC: 00400144, Inst: 11d31463, Addr: 00000001, Rd-Dt: xxxxxxxx, Rd-En 0, Wr-Dt: 00000f00, WrEn: 0, Wr-BE: 0110
PC: 00400148, Inst: 00120213, Addr: 00000002, Rd-Dt: xxxxxxxx, Rd-En 0, Wr-Dt: 00020000, WrEn: 0, Wr-BE: 0100
PC: 0040014c, Inst: 00200293, Addr: 00000002, Rd-Dt: xxxxxxxx, Rd-En 0, Wr-Dt: xxxx0000, WrEn: 0, Wr-BE: 0100
PC: 00400150, Inst: fc521ee3, Addr: 00000001, Rd-Dt: xxxxxxxx, Rd-En 0, Wr-Dt: 00000200, WrEn: 0, Wr-BE: 0110
PC: 00400154, Inst: 00e00e13, Addr: 0000000e, Rd-Dt: xxxxxxxx, Rd-En 0, Wr-Dt: xxxx0000, WrEn: 0, Wr-BE: 0100
PC: 00400158, Inst: 00000213, Addr: 00000000, Rd-Dt: xxxxxxxx, Rd-En 0, Wr-Dt: 00000000, WrEn: 0, Wr-BE: 0001
PC: 0040015c, Inst: 7fc00097, Addr: 8000015c, Rd-Dt: xxxxxxxx, Rd-En 0, Wr-Dt: 0000000e, WrEn: 0, Wr-BE: 0001
PC: 00400160, Inst: ea408093, Addr: 80000000, Rd-Dt: xxxxxxxx, Rd-En 0, Wr-Dt: 00000000, WrEn: 0, Wr-BE: 0001
PC: 00400164, Inst: 00108183, Addr: 80000001, Rd-Dt: 0ff000ff, Rd-En 1, Wr-Dt: 00000000, WrEn: 0, Wr-BE: 0010
PC: 00400168, Inst: 00000013, Addr: 00000000, Rd-Dt: xxxxxxxx, Rd-En 0, Wr-Dt: 00000000, WrEn: 0, Wr-BE: 0001
PC: 0040016c, Inst: 00000013, Addr: 00000000, Rd-Dt: xxxxxxxx, Rd-En 0, Wr-Dt: 00000000, WrEn: 0, Wr-BE: 0001
PC: 00400170, Inst: 00018313, Addr: 00000000, Rd-Dt: xxxxxxxx, Rd-En 0, Wr-Dt: 00000000, WrEn: 0, Wr-BE: 0001
PC: 00400174, Inst: 00000e93, Addr: 00000000, Rd-Dt: xxxxxxxx, Rd-En 0, Wr-Dt: 00000000, WrEn: 0, Wr-BE: 0001
PC: 00400178, Inst: 0dd31a63, Addr: 00000001, Rd-Dt: xxxxxxxx, Rd-En 0, Wr-Dt: 00000000, WrEn: 0, Wr-BE: 0110
PC: 0040017c, Inst: 00120213, Addr: 00000001, Rd-Dt: xxxxxxxx, Rd-En 0, Wr-Dt: 00000000, WrEn: 0, Wr-BE: 0010
PC: 00400180, Inst: 00200293, Addr: 00000002, Rd-Dt: xxxxxxxx, Rd-En 0, Wr-Dt: xxxx0000, WrEn: 0, Wr-BE: 0100
PC: 00400184, Inst: fc521ce3, Addr: 00000000, Rd-Dt: xxxxxxxx, Rd-En 0, Wr-Dt: 00000002, WrEn: 0, Wr-BE: 0011
PC: 0040015c, Inst: 7fc00097, Addr: 8000015c, Rd-Dt: xxxxxxxx, Rd-En 0, Wr-Dt: 0000000e, WrEn: 0, Wr-BE: 0001
PC: 00400160, Inst: ea408093, Addr: 80000000, Rd-Dt: xxxxxxxx, Rd-En 0, Wr-Dt: 00000001, WrEn: 0, Wr-BE: 0001
PC: 00400164, Inst: 00108183, Addr: 80000001, Rd-Dt: 0ff000ff, Rd-En 1, Wr-Dt: 00000000, WrEn: 0, Wr-BE: 0010
PC: 00400168, Inst: 00000013, Addr: 00000000, Rd-Dt: xxxxxxxx, Rd-En 0, Wr-Dt: 00000000, WrEn: 0, Wr-BE: 0001
PC: 0040016c, Inst: 00000013, Addr: 00000000, Rd-Dt: xxxxxxxx, Rd-En 0, Wr-Dt: 00000000, WrEn: 0, Wr-BE: 0001
PC: 00400170, Inst: 00018313, Addr: 00000000, Rd-Dt: xxxxxxxx, Rd-En 0, Wr-Dt: 00000000, WrEn: 0, Wr-BE: 0001
PC: 00400174, Inst: 00000e93, Addr: 00000000, Rd-Dt: xxxxxxxx, Rd-En 0, Wr-Dt: 00000000, WrEn: 0, Wr-BE: 0001
PC: 00400178, Inst: 0dd31a63, Addr: 00000001, Rd-Dt: xxxxxxxx, Rd-En 0, Wr-Dt: 00000000, WrEn: 0, Wr-BE: 0110
PC: 0040017c, Inst: 00120213, Addr: 00000002, Rd-Dt: xxxxxxxx, Rd-En 0, Wr-Dt: 00000000, WrEn: 0, Wr-BE: 0100
PC: 00400180, Inst: 00200293, Addr: 00000002, Rd-Dt: xxxxxxxx, Rd-En 0, Wr-Dt: xxxx0000, WrEn: 0, Wr-BE: 0100
PC: 00400184, Inst: fc521ce3, Addr: 00000001, Rd-Dt: xxxxxxxx, Rd-En 0, Wr-Dt: 00000200, WrEn: 0, Wr-BE: 0110
PC: 00400188, Inst: 00f00e13, Addr: 0000000f, Rd-Dt: xxxxxxxx, Rd-En 0, Wr-Dt: xx000000, WrEn: 0, Wr-BE: 1000
PC: 0040018c, Inst: 00000213, Addr: 00000000, Rd-Dt: xxxxxxxx, Rd-En 0, Wr-Dt: 00000000, WrEn: 0, Wr-BE: 0001
PC: 00400190, Inst: 7fc00097, Addr: 80000190, Rd-Dt: xxxxxxxx, Rd-En 0, Wr-Dt: 0000000f, WrEn: 0, Wr-BE: 0001
PC: 00400194, Inst: e7108093, Addr: 80000001, Rd-Dt: xxxxxxxx, Rd-En 0, Wr-Dt: xxxxxx00, WrEn: 0, Wr-BE: 0010
PC: 00400198, Inst: 00108183, Addr: 80000002, Rd-Dt: 0ff000ff, Rd-En 1, Wr-Dt: 00010000, WrEn: 0, Wr-BE: 0100
PC: 0040019c, Inst: ff000e93, Addr: fffffff0, Rd-Dt: xxxxxxxx, Rd-En 0, Wr-Dt: xxxxxxxx, WrEn: 0, Wr-BE: 0001
PC: 004001a0, Inst: 0bd19663, Addr: 00000001, Rd-Dt: xxxxxxxx, Rd-En 0, Wr-Dt: fffff000, WrEn: 0, Wr-BE: 0110
PC: 004001a4, Inst: 00120213, Addr: 00000001, Rd-Dt: xxxxxxxx, Rd-En 0, Wr-Dt: 00000100, WrEn: 0, Wr-BE: 0010
PC: 004001a8, Inst: 00200293, Addr: 00000002, Rd-Dt: xxxxxxxx, Rd-En 0, Wr-Dt: xxxx0000, WrEn: 0, Wr-BE: 0100
PC: 004001ac, Inst: fe5212e3, Addr: 00000000, Rd-Dt: xxxxxxxx, Rd-En 0, Wr-Dt: 00000002, WrEn: 0, Wr-BE: 0011
PC: 00400190, Inst: 7fc00097, Addr: 80000190, Rd-Dt: xxxxxxxx, Rd-En 0, Wr-Dt: 0000000f, WrEn: 0, Wr-BE: 0001
PC: 00400194, Inst: e7108093, Addr: 80000001, Rd-Dt: xxxxxxxx, Rd-En 0, Wr-Dt: xxxxxx00, WrEn: 0, Wr-BE: 0010
PC: 00400198, Inst: 00108183, Addr: 80000002, Rd-Dt: 0ff000ff, Rd-En 1, Wr-Dt: 00010000, WrEn: 0, Wr-BE: 0100
PC: 0040019c, Inst: ff000e93, Addr: fffffff0, Rd-Dt: xxxxxxxx, Rd-En 0, Wr-Dt: xxxxxxxx, WrEn: 0, Wr-BE: 0001
PC: 004001a0, Inst: 0bd19663, Addr: 00000001, Rd-Dt: xxxxxxxx, Rd-En 0, Wr-Dt: fffff000, WrEn: 0, Wr-BE: 0110
PC: 004001a4, Inst: 00120213, Addr: 00000002, Rd-Dt: xxxxxxxx, Rd-En 0, Wr-Dt: 00010000, WrEn: 0, Wr-BE: 0100
PC: 004001a8, Inst: 00200293, Addr: 00000002, Rd-Dt: xxxxxxxx, Rd-En 0, Wr-Dt: xxxx0000, WrEn: 0, Wr-BE: 0100
PC: 004001ac, Inst: fe5212e3, Addr: 00000001, Rd-Dt: xxxxxxxx, Rd-En 0, Wr-Dt: 00000200, WrEn: 0, Wr-BE: 0110
PC: 004001b0, Inst: 01000e13, Addr: 00000010, Rd-Dt: xxxxxxxx, Rd-En 0, Wr-Dt: xxxxxxxx, WrEn: 0, Wr-BE: 0001
PC: 004001b4, Inst: 00000213, Addr: 00000000, Rd-Dt: xxxxxxxx, Rd-En 0, Wr-Dt: 00000000, WrEn: 0, Wr-BE: 0001
PC: 004001b8, Inst: 7fc00097, Addr: 800001b8, Rd-Dt: xxxxxxxx, Rd-En 0, Wr-Dt: 00000010, WrEn: 0, Wr-BE: 0001
PC: 004001bc, Inst: e4a08093, Addr: 80000002, Rd-Dt: xxxxxxxx, Rd-En 0, Wr-Dt: xxxx0000, WrEn: 0, Wr-BE: 0100
PC: 004001c0, Inst: 00000013, Addr: 00000000, Rd-Dt: xxxxxxxx, Rd-En 0, Wr-Dt: 00000000, WrEn: 0, Wr-BE: 0001
PC: 004001c4, Inst: 00108183, Addr: 80000003, Rd-Dt: 0ff000ff, Rd-En 1, Wr-Dt: 02000000, WrEn: 0, Wr-BE: 1000
PC: 004001c8, Inst: 00f00e93, Addr: 0000000f, Rd-Dt: xxxxxxxx, Rd-En 0, Wr-Dt: xx000000, WrEn: 0, Wr-BE: 1000
PC: 004001cc, Inst: 09d19063, Addr: 00000001, Rd-Dt: xxxxxxxx, Rd-En 0, Wr-Dt: 00000f00, WrEn: 0, Wr-BE: 0110
PC: 004001d0, Inst: 00120213, Addr: 00000001, Rd-Dt: xxxxxxxx, Rd-En 0, Wr-Dt: 00000200, WrEn: 0, Wr-BE: 0010
PC: 004001d4, Inst: 00200293, Addr: 00000002, Rd-Dt: xxxxxxxx, Rd-En 0, Wr-Dt: xxxx0000, WrEn: 0, Wr-BE: 0100
PC: 004001d8, Inst: fe5210e3, Addr: 00000000, Rd-Dt: xxxxxxxx, Rd-En 0, Wr-Dt: 00000002, WrEn: 0, Wr-BE: 0011
PC: 004001b8, Inst: 7fc00097, Addr: 800001b8, Rd-Dt: xxxxxxxx, Rd-En 0, Wr-Dt: 00000010, WrEn: 0, Wr-BE: 0001
PC: 004001bc, Inst: e4a08093, Addr: 80000002, Rd-Dt: xxxxxxxx, Rd-En 0, Wr-Dt: xxxx0000, WrEn: 0, Wr-BE: 0100
PC: 004001c0, Inst: 00000013, Addr: 00000000, Rd-Dt: xxxxxxxx, Rd-En 0, Wr-Dt: 00000000, WrEn: 0, Wr-BE: 0001
PC: 004001c4, Inst: 00108183, Addr: 80000003, Rd-Dt: 0ff000ff, Rd-En 1, Wr-Dt: 02000000, WrEn: 0, Wr-BE: 1000
PC: 004001c8, Inst: 00f00e93, Addr: 0000000f, Rd-Dt: xxxxxxxx, Rd-En 0, Wr-Dt: xx000000, WrEn: 0, Wr-BE: 1000
PC: 004001cc, Inst: 09d19063, Addr: 00000001, Rd-Dt: xxxxxxxx, Rd-En 0, Wr-Dt: 00000f00, WrEn: 0, Wr-BE: 0110
PC: 004001d0, Inst: 00120213, Addr: 00000002, Rd-Dt: xxxxxxxx, Rd-En 0, Wr-Dt: 00020000, WrEn: 0, Wr-BE: 0100
PC: 004001d4, Inst: 00200293, Addr: 00000002, Rd-Dt: xxxxxxxx, Rd-En 0, Wr-Dt: xxxx0000, WrEn: 0, Wr-BE: 0100
PC: 004001d8, Inst: fe5210e3, Addr: 00000001, Rd-Dt: xxxxxxxx, Rd-En 0, Wr-Dt: 00000200, WrEn: 0, Wr-BE: 0110
PC: 004001dc, Inst: 01100e13, Addr: 00000011, Rd-Dt: xxxxxxxx, Rd-En 0, Wr-Dt: xxxxxx00, WrEn: 0, Wr-BE: 0010
PC: 004001e0, Inst: 00000213, Addr: 00000000, Rd-Dt: xxxxxxxx, Rd-En 0, Wr-Dt: 00000000, WrEn: 0, Wr-BE: 0001
PC: 004001e4, Inst: 7fc00097, Addr: 800001e4, Rd-Dt: xxxxxxxx, Rd-En 0, Wr-Dt: 00000011, WrEn: 0, Wr-BE: 0001
PC: 004001e8, Inst: e1c08093, Addr: 80000000, Rd-Dt: xxxxxxxx, Rd-En 0, Wr-Dt: 00000011, WrEn: 0, Wr-BE: 0001
PC: 004001ec, Inst: 00000013, Addr: 00000000, Rd-Dt: xxxxxxxx, Rd-En 0, Wr-Dt: 00000000, WrEn: 0, Wr-BE: 0001
PC: 004001f0, Inst: 00000013, Addr: 00000000, Rd-Dt: xxxxxxxx, Rd-En 0, Wr-Dt: 00000000, WrEn: 0, Wr-BE: 0001
PC: 004001f4, Inst: 00108183, Addr: 80000001, Rd-Dt: 0ff000ff, Rd-En 1, Wr-Dt: 00000000, WrEn: 0, Wr-BE: 0010
PC: 004001f8, Inst: 00000e93, Addr: 00000000, Rd-Dt: xxxxxxxx, Rd-En 0, Wr-Dt: 00000000, WrEn: 0, Wr-BE: 0001
PC: 004001fc, Inst: 05d19863, Addr: 00000001, Rd-Dt: xxxxxxxx, Rd-En 0, Wr-Dt: 00000000, WrEn: 0, Wr-BE: 0110
